<svg width="19" height="13" viewBox="0 0 19 13" version="1.1" xmlns="http://www.w3.org/2000/svg" xmlns:xlink="http://www.w3.org/1999/xlink">
<g data-name="Canvas" fill="none">
<g data-name="&#208;&#177;&#209;&#131;&#209;&#128;&#208;&#179;&#208;&#181;&#209;&#128;">
<g data-name="Path 2">
<g stroke-width="2" transform="matrix(-0.656599 0.656599 0.656599 0.656599 9.28572 2.78573)">
<use xlink:href="#path0" stroke="#41E6A0"/>
</g>
</g>
<g data-name="Path 2">
<g stroke-width="2" transform="matrix(-0.656599 0.656599 0.656599 0.656599 9.28572 -2.7857)">
<use xlink:href="#path1" stroke="#41E6A0"/>
</g>
</g>
<g data-name="Path 2">
<g stroke-width="2" transform="matrix(0.656599 0.656599 -0.656599 0.656599 9.28574 -8.35713)">
<use xlink:href="#path2" stroke="#41E6A0"/>
</g>
</g>
</g>
</g>
<defs>

<path id="path0" d="M 0 14.1421L 14.1421 0"/>
<path id="path1" d="M 0 14.1421L 14.1421 0"/>
<path id="path2" d="M 0 14.1421L 14.1421 0"/>

</defs>
</svg>

